patch_id,volume_id,patchx,patchy,patchz,psizex,psizey,psizez,cluster_id,perf_0,perf_1,perf_2,param_0,param_1,param_2,vector,medoid
0,0,29,86,94,7,7,7,0,316,1.9,1.05,100,20,-1,"-1.99,1,-1",0
1,10,17,59,3,6,6,6,0,300,2.5,0.8,120,10,-2.4,"-1,1,-2",0
2,20,53,78,50,8,8,8,0,255,2.4,0.5,114,13,0.5,"-2.1,1,-3",1
3,45,57,96,75,5,5,5,2,355,1.8,1.02,100,21,1.2,"-1,-2,5",0
4,60,57,30,56,8,8,8,2,322,1.1,1.1,130,11,3.4,"1,1,-5.01",1
5,100,86,79,41,8,8,8,2,340,1.5,1,120,15,-2.2,"-1,1,-6.05",0
6,100,10,25,45,8,8,8,1,300,1.5,1,100,11,-5,"1,-1,-4",1